simulation/qsim/decision.msim.vcd
$comment
	File created using the following command:
		vcd file decision.msim.vcd -direction
$end
$date
	Thu Nov 28 16:23:54 2024
$end
$version
	ModelSim Version 10.1d
$end
$timescale
	1ps
$end
$scope module decisionfinal_vlg_vec_tst $end
$var reg 1 ! clk $end
$var reg 1 " O0 $end
$var reg 1 # O1 $end
$var reg 1 $ reset $end
$var reg 4 % V0 [3:0] $end
$var reg 4 & V1 [3:0] $end
$var reg 4 ' V2 [3:0] $end
$var reg 4 ( V3 [3:0] $end
$var wire 1 ) ea $end
$var wire 1 * eg $end
$var wire 1 + GD $end
$var wire 1 , GI $end
$var wire 1 - sampler $end
$scope module i1 $end
$var wire 1 . gnd $end
$var wire 1 / vcc $end
$var wire 1 0 unknown $end
$var tri1 1 1 devclrn $end
$var tri1 1 2 devpor $end
$var tri1 1 3 devoe $end
$var wire 1 4 inst|aux~0_combout $end
$var wire 1 5 inst|aux~1_combout $end
$var wire 1 6 inst|aux~2_combout $end
$var wire 1 7 inst|LessThan1~0_combout $end
$var wire 1 8 inst|LessThan1~1_combout $end
$var wire 1 9 inst|LessThan3~0_combout $end
$var wire 1 : inst|LessThan2~0_combout $end
$var wire 1 ; inst|process_0~0_combout $end
$var wire 1 < inst|process_0~2_combout $end
$var wire 1 = inst|aux~4_combout $end
$var wire 1 > inst|aux~5_combout $end
$var wire 1 ? O1~input_o $end
$var wire 1 @ V3[2]~input_o $end
$var wire 1 A V3[1]~input_o $end
$var wire 1 B V2[1]~input_o $end
$var wire 1 C V3[0]~input_o $end
$var wire 1 D V0[0]~input_o $end
$var wire 1 E V0[1]~input_o $end
$var wire 1 F ea~output_o $end
$var wire 1 G GI~output_o $end
$var wire 1 H GD~output_o $end
$var wire 1 I eg~output_o $end
$var wire 1 J clk~input_o $end
$var wire 1 K clk~inputclkctrl_outclk $end
$var wire 1 L O0~input_o $end
$var wire 1 M V2[3]~input_o $end
$var wire 1 N V0[3]~input_o $end
$var wire 1 O inst|LessThan1~2_combout $end
$var wire 1 P V1[2]~input_o $end
$var wire 1 Q V0[2]~input_o $end
$var wire 1 R inst|LessThan3~1_combout $end
$var wire 1 S V1[3]~input_o $end
$var wire 1 T inst|LessThan3~2_combout $end
$var wire 1 U V3[3]~input_o $end
$var wire 1 V inst|process_0~1_combout $end
$var wire 1 W inst|aux~6_combout $end
$var wire 1 X reset~input_o $end
$var wire 1 Y V2[2]~input_o $end
$var wire 1 Z V1[1]~input_o $end
$var wire 1 [ V2[0]~input_o $end
$var wire 1 \ V1[0]~input_o $end
$var wire 1 ] inst|LessThan4~0_combout $end
$var wire 1 ^ inst|LessThan4~1_combout $end
$var wire 1 _ inst|LessThan4~2_combout $end
$var wire 1 ` inst|aux~3_combout $end
$var wire 1 a inst|Mux2~0_combout $end
$var wire 1 b reset~inputclkctrl_outclk $end
$var wire 1 c inst|ea~q $end
$var wire 1 d inst|Mux0~0_combout $end
$var wire 1 e inst|GI~q $end
$var wire 1 f inst|Mux1~0_combout $end
$var wire 1 g inst|GD~q $end
$var wire 1 h inst|eg~feeder_combout $end
$var wire 1 i inst|eg~q $end
$var wire 1 j inst|aux [1] $end
$var wire 1 k inst|aux [0] $end
$upscope $end
$upscope $end
$enddefinitions $end
#0
$dumpvars
0!
1"
1#
0$
b1111 %
b1111 &
b1111 '
b0 (
1)
0*
0+
0,
x-
0.
1/
x0
11
12
13
04
05
16
07
08
09
0:
0;
0<
0=
0>
1?
0@
0A
1B
0C
1D
1E
1F
0G
0H
0I
0J
0K
1L
1M
1N
0O
1P
1Q
0R
1S
0T
0U
0V
1W
0X
1Y
1Z
1[
1\
0]
0^
0_
1`
0a
0b
0c
0d
0e
0f
0g
0h
0i
0k
0j
$end
#5000
1!
1J
1K
0-
#10000
0!
0J
0K
1-
#15000
1!
1J
1K
0-
#20000
0!
0J
0K
1-
#25000
1!
1J
1K
0-
#30000
0!
0J
0K
1-
#35000
1!
1J
1K
0-
#40000
0!
0J
0K
1-
#45000
1!
1J
1K
0-
#50000
0!
0J
0K
1-
#55000
1!
1J
1K
0-
#60000
0!
0J
0K
1-
#65000
1!
1J
1K
0-
#70000
0!
0J
0K
1-
#75000
1!
1J
1K
0-
#80000
0!
0J
0K
1-
#85000
1!
1J
1K
0-
#90000
0!
0J
0K
1-
#95000
1!
1J
1K
0-
#100000
0!
0J
0K
1-
#105000
1!
1J
1K
0-
#110000
0!
0J
0K
1-
#115000
1!
1J
1K
0-
#120000
0!
0J
0K
1-
#125000
1!
1J
1K
0-
#130000
0!
0J
0K
1-
#135000
1!
1J
1K
0-
#140000
0!
0J
0K
1-
#145000
1!
1J
1K
0-
#150000
0!
0J
0K
1-
#155000
1!
1J
1K
0-
#160000
0!
0J
0K
1-
#165000
1!
1J
1K
0-
#170000
0!
0J
0K
1-
#175000
1!
1J
1K
0-
#180000
0!
0J
0K
1-
#185000
1!
1J
1K
0-
#190000
0!
0J
0K
1-
#195000
1!
1J
1K
0-
#200000
0!
0J
0K
1-
#205000
1!
1J
1K
0-
#210000
0!
0J
0K
1-
#215000
1!
1J
1K
0-
#220000
0!
0J
0K
1-
#225000
1!
1J
1K
0-
#230000
0!
0J
0K
1-
#235000
1!
1J
1K
0-
#240000
0!
0J
0K
1-
#245000
1!
1J
1K
0-
#250000
0!
0J
0K
1-
#255000
1!
1J
1K
0-
#260000
0!
0J
0K
1-
#265000
1!
1J
1K
0-
#270000
0!
0J
0K
1-
#275000
1!
1J
1K
0-
#280000
0!
0J
0K
1-
#285000
1!
1J
1K
0-
#290000
0!
0J
0K
1-
#295000
1!
1J
1K
0-
#300000
0!
0J
0K
1-
#305000
1!
1J
1K
0-
#310000
0!
0J
0K
1-
#315000
1!
1J
1K
0-
#320000
0!
0J
0K
1-
#325000
1!
1J
1K
0-
#330000
0!
0J
0K
1-
#335000
1!
1J
1K
0-
#340000
0!
0J
0K
1-
#345000
1!
1J
1K
0-
#350000
0!
0J
0K
1-
#355000
1!
1J
1K
0-
#360000
0!
0J
0K
1-
#365000
1!
1J
1K
0-
#370000
0!
0J
0K
1-
#375000
1!
1J
1K
0-
#380000
0!
0J
0K
1-
#385000
1!
1J
1K
0-
#390000
0!
0J
0K
1-
#395000
1!
1J
1K
0-
#400000
0!
0J
0K
1-
#405000
1!
1J
1K
0-
#410000
0!
0J
0K
1-
#415000
1!
1J
1K
0-
#420000
0!
0J
0K
1-
#425000
1!
1J
1K
0-
#430000
0!
0J
0K
1-
#435000
1!
1J
1K
0-
#440000
0!
0J
0K
1-
#445000
1!
1J
1K
0-
#450000
0!
0J
0K
1-
#455000
1!
1J
1K
0-
#460000
0!
0J
0K
1-
#465000
1!
1J
1K
0-
#470000
0!
0J
0K
1-
#475000
1!
1J
1K
0-
#480000
0!
0J
0K
1-
#485000
1!
1J
1K
0-
#490000
0!
0J
0K
1-
#495000
1!
1J
1K
0-
#500000
0!
0J
0K
1-
#505000
1!
1J
1K
0-
#510000
0!
0J
0K
1-
#515000
1!
1J
1K
0-
#520000
0!
0J
0K
1-
#525000
1!
1J
1K
0-
#530000
0!
0J
0K
1-
#535000
1!
1J
1K
0-
#540000
0!
0J
0K
1-
#545000
1!
1J
1K
0-
#550000
0!
0J
0K
1-
#555000
1!
1J
1K
0-
#560000
0!
0J
0K
1-
#565000
1!
1J
1K
0-
#570000
0!
0J
0K
1-
#575000
1!
1J
1K
0-
#580000
0!
0J
0K
1-
#585000
1!
1J
1K
0-
#590000
0!
0J
0K
1-
#595000
1!
1J
1K
0-
#600000
0!
0J
0K
1-
#605000
1!
1J
1K
0-
#610000
0!
0J
0K
1-
#615000
1!
1J
1K
0-
#620000
0!
0J
0K
1-
#625000
1!
1J
1K
0-
#630000
0!
0J
0K
1-
#635000
1!
1J
1K
0-
#640000
0!
0J
0K
1-
#645000
1!
1J
1K
0-
#650000
0!
0J
0K
1-
#655000
1!
1J
1K
0-
#660000
0!
0J
0K
1-
#665000
1!
1J
1K
0-
#670000
0!
0J
0K
1-
#675000
1!
1J
1K
0-
#680000
0!
0J
0K
1-
#685000
1!
1J
1K
0-
#690000
0!
0J
0K
1-
#695000
1!
1J
1K
0-
#700000
0!
0J
0K
1-
#705000
1!
1J
1K
0-
#710000
0!
0J
0K
1-
#715000
1!
1J
1K
0-
#720000
0!
0J
0K
1-
#725000
1!
1J
1K
0-
#730000
0!
0J
0K
1-
#735000
1!
1J
1K
0-
#740000
0!
0J
0K
1-
#745000
1!
1J
1K
0-
#750000
0!
0J
0K
1-
#755000
1!
1J
1K
0-
#760000
0!
0J
0K
1-
#765000
1!
1J
1K
0-
#770000
0!
0J
0K
1-
#775000
1!
1J
1K
0-
#780000
0!
0J
0K
1-
#785000
1!
1J
1K
0-
#790000
0!
0J
0K
1-
#795000
1!
1J
1K
0-
#800000
0!
0J
0K
1-
#805000
1!
1J
1K
0-
#810000
0!
0J
0K
1-
#815000
1!
1J
1K
0-
#820000
0!
0J
0K
1-
#825000
1!
1J
1K
0-
#830000
0!
0J
0K
1-
#835000
1!
1J
1K
0-
#840000
0!
0J
0K
1-
#845000
1!
1J
1K
0-
#850000
0!
0J
0K
1-
#855000
1!
1J
1K
0-
#860000
0!
0J
0K
1-
#865000
1!
1J
1K
0-
#870000
0!
0J
0K
1-
#875000
1!
1J
1K
0-
#880000
0!
0J
0K
1-
#885000
1!
1J
1K
0-
#890000
0!
0J
0K
1-
#895000
1!
1J
1K
0-
#900000
0!
0J
0K
1-
#905000
1!
1J
1K
0-
#910000
0!
0J
0K
1-
#915000
1!
1J
1K
0-
#920000
0!
0J
0K
1-
#925000
1!
1J
1K
0-
#930000
0!
0J
0K
1-
#935000
1!
1J
1K
0-
#940000
0!
0J
0K
1-
#945000
1!
1J
1K
0-
#950000
0!
0J
0K
1-
#955000
1!
1J
1K
0-
#960000
0!
0J
0K
1-
#965000
1!
1J
1K
0-
#970000
0!
0J
0K
1-
#975000
1!
1J
1K
0-
#980000
0!
0J
0K
1-
#985000
1!
1J
1K
0-
#990000
0!
0J
0K
1-
#995000
1!
1J
1K
0-
